[
    {
        "id": 2,
        "name": "Nexta Helmet",
        "path": "../img/items/00002.png",
        "ap": 12,
        "hp": 9,
        "lat": -66,
        "long": 17.232,
        "reqLevel": 1,
        "equipped": false
    },
    {
        "id": 4,
        "name": "Radiance of Light",
        "path": "../img/items/00003.png",
        "ap": 14,
        "hp": 2,
        "lat": -67,
        "long": 18,
        "reqLevel": 2,
        "equipped": false
    },
    {
        "id": 9,
        "name": "Radiance of Light",
        "path": "../img/items/00001.png",
        "ap": 14,
        "hp": 2,
        "lat": -66,
        "long": 17,
        "reqLevel": 1,
        "equipped": false
    },
    {
        "id": 2,
        "name": "Nexta Helmet",
        "path": "../img/items/00004.png",
        "ap": 12,
        "hp": 9,
        "lat": -66,
        "long": 17.232,
        "reqLevel": 1,
        "equipped": false
    },
    {
        "id": 4,
        "name": "Radiance of Light",
        "path": "../img/items/00005.png",
        "ap": 14,
        "hp": 2,
        "lat": -67,
        "long": 18,
        "reqLevel": 2,
        "equipped": false
    },
    {
        "id": 9,
        "name": "Radiance of Light",
        "path": "../img/items/00006.png",
        "ap": 14,
        "hp": 2,
        "lat": -66,
        "long": 17,
        "reqLevel": 1,
        "equipped": false
    },
    {
        "id": 2,
        "name": "Nexta Helmet",
        "path": "../img/items/00007.png",
        "ap": 12,
        "hp": 9,
        "lat": -66,
        "long": 17.232,
        "reqLevel": 1,
        "equipped": false
    },
    {
        "id": 4,
        "name": "Radiance of Light",
        "path": "../img/items/00008.png",
        "ap": 14,
        "hp": 2,
        "lat": -67,
        "long": 18,
        "reqLevel": 2,
        "equipped": false
    },
    {
        "id": 9,
        "name": "Radiance of Light",
        "path": "../img/items/00009.png",
        "ap": 14,
        "hp": 2,
        "lat": -66,
        "long": 17,
        "reqLevel": 1,
        "equipped": false
    },
    {
        "id": 9,
        "name": "Radiance of Light",
        "path": "../img/items/00010.png",
        "ap": 14,
        "hp": 2,
        "lat": -66,
        "long": 17,
        "reqLevel": 1,
        "equipped": false
    },
    {
        "id": 9,
        "name": "Radiance of Light",
        "path": "../img/items/00011.png",
        "ap": 14,
        "hp": 2,
        "lat": -66,
        "long": 17,
        "reqLevel": 1,
        "equipped": false
    }
]