<?xml version="1.0" encoding="UTF-8" standalone="no"?>
<!-- Created with Inkscape (http://www.inkscape.org/) -->

<svg
   xmlns:dc="http://purl.org/dc/elements/1.1/"
   xmlns:cc="http://creativecommons.org/ns#"
   xmlns:rdf="http://www.w3.org/1999/02/22-rdf-syntax-ns#"
   xmlns:svg="http://www.w3.org/2000/svg"
   xmlns="http://www.w3.org/2000/svg"
   version="1.1"
   width="744.09448"
   height="1052.3622"
   id="svg2">
  <defs
     id="defs4">
    <filter
       color-interpolation-filters="sRGB"
       id="filter3055">
      <feGaussianBlur
         stdDeviation="5 0.01"
         in="SourceGraphic"
         id="feGaussianBlur3057" />
    </filter>
    <filter
       color-interpolation-filters="sRGB"
       id="filter3059">
      <feGaussianBlur
         result="result1"
         stdDeviation="5"
         id="feGaussianBlur3061" />
      <feComposite
         in2="result1"
         operator="arithmetic"
         k1="0"
         k2="2"
         k3="0"
         k4="0"
         in="result1"
         id="feComposite3063" />
    </filter>
    <filter
       color-interpolation-filters="sRGB"
       id="filter3065">
      <feGaussianBlur
         result="result1"
         stdDeviation="5"
         id="feGaussianBlur3067" />
      <feComposite
         in2="result1"
         operator="arithmetic"
         k1="0"
         k2="2"
         k3="0"
         k4="0"
         in="result1"
         id="feComposite3069" />
    </filter>
  </defs>
  <metadata
     id="metadata7">
    <rdf:RDF>
      <cc:Work
         rdf:about="">
        <dc:format>image/svg+xml</dc:format>
        <dc:type
           rdf:resource="http://purl.org/dc/dcmitype/StillImage" />
        <dc:title></dc:title>
      </cc:Work>
    </rdf:RDF>
  </metadata>
  <g
     id="layer1">
    <path
       d="m 720,612.36218 a 320,320 0 1 1 -640,0 320,320 0 1 1 640,0 z"
       transform="matrix(1.0848214,0,0,1.0625,-73.928571,-118.27264)"
       id="path3051"
       style="fill:#008080;fill-opacity:1;stroke:#000000;stroke-width:0.18628865;stroke-linejoin:round;stroke-miterlimit:3.5;stroke-opacity:1;stroke-dasharray:none" />
    <path
       d="m 720,612.36218 a 320,320 0 1 1 -640,0 320,320 0 1 1 640,0 z"
       transform="matrix(1.0424107,0,0,1.0209619,-57.392855,-96.12848)"
       id="path3053"
       style="fill:#ffffff;fill-opacity:1;stroke:#000000;stroke-width:0.19386785;stroke-linejoin:round;stroke-miterlimit:3.5;stroke-opacity:1;stroke-dasharray:none" />
    <path
       d="m 720,612.36218 a 320,320 0 1 1 -640,0 320,320 0 1 1 640,0 z"
       transform="matrix(1.0125,0,0,1,-45,-82)"
       id="path2987"
       style="fill:#008080;fill-opacity:1;stroke:#000000;stroke-width:0.1987616;stroke-linejoin:round;stroke-miterlimit:3.5;stroke-opacity:1;stroke-dasharray:none" />
    <path
       d="m 280,592.36218 a 60,60 0 1 1 -120,0 60,60 0 1 1 120,0 z"
       id="path3039"
       class="lum"
       style="fill:#00ffff;fill-opacity:1;stroke:#000000;stroke-width:0.2;stroke-linejoin:round;stroke-miterlimit:3.5;stroke-opacity:1;stroke-dasharray:none;filter:url(#filter3059)" />
    <path
       d="m 280,592.36218 a 60,60 0 1 1 -120,0 60,60 0 1 1 120,0 z"
       transform="translate(140,-200)"
       id="path3045"
       class="lum"
       style="fill:#00ffff;fill-opacity:1;stroke:#000000;stroke-width:0.2;stroke-linejoin:round;stroke-miterlimit:3.5;stroke-opacity:1;stroke-dasharray:none;filter:url(#filter3055)" />
    <path
       d="m 280,592.36218 a 60,60 0 1 1 -120,0 60,60 0 1 1 120,0 z"
       transform="translate(260,0)"
       id="path3047"
       class="lum"
       style="fill:#00ffff;fill-opacity:1;stroke:#000000;stroke-width:0.2;stroke-linejoin:round;stroke-miterlimit:3.5;stroke-opacity:1;stroke-dasharray:none;filter:url(#filter3065)" />
  </g>
</svg>
